[
{

"catgl":"Bolvormig",
"desc":[
	{
"materiaal":"PMMA",
"info":[
{
"typs":"EP10"
},
{
"typs":"Enkelwandig",
"counting":[

{

"uitvoering":"H"
},{

"types":"Enkelwandig",
"uitvoering":"O"
}

]
},
{
"typs":"Dubbelwandig",
"counting":[

{
"uitvoering":"HH"
},
{
"uitvoering":"OO"
}
]

},
{
"typs":"Driewandig",
"counting":[
{
"uitvoering":"HHH"
},
{

"uitvoering":"OHO"
}

]

},
{
"typs":"Vierwandig",
"counting":[
{
"uitvoering":"HHHA"
},
{

"uitvoering":"HHOA"
}


]
},{
"typs":"Vijfwandig",
"counting":[
{
"uitvoering":"HHHHA"
},{

"uitvoering":"OHHHA"
}

]
}
]

}
,{
"materiaal":"PC",
"info":[
{
"typs":"EP10"

},
{
"typs":"EP16"
},
{
"typs":"Enkelwandig",
"counting":[
{

"uitvoering":"A"
}]

},
{
"typs":"Dubbelwandig",
"counting":[{

"uitvoering":"AA"
},{
"uitvoering":"AD"
},{

"uitvoering":"AH"
},{

"uitvoering":"AO"
}]

},
{
"typs":"Driewandig",
"counting":[{

"uitvoering":"AHH"
},{

"uitvoering":"AOO"
}]

},
{
"typs":"Vierwandig",
"counting":[{

"uitvoering":"AHHA"
},{
"uitvoering":"AHOA"
}]
}
]
}
,{
"materiaal":"PCHeatstop",
"info":[

{
"typs":"Enkelwandig",
"counting":[{
"uitvoering":"T"
}]

},

{
"typs":"Dubbelwandig",

"counting":[{
"uitvoering":"TH"
},{
"uitvoering":"TO"
},{

"uitvoering":"TA*"
}]

},
{
"typs":"Driewandig",
"counting":[{
"uitvoering":"THH"
},{
"uitvoering":"THO"
},{

"uitvoering":"TAA*"
}]

},
{
"typs":"Vierwandig",
"counting":[{
"uitvoering":"THHA"
},{
"uitvoering":"THOA"
}]
}
]

}

]}
,{
"catgl":"piramidevorming",
"desc":[
    {

"materiaal":"PMMA",
"info":[

{
"typs":"Enkelwandig",
"counting":[{
"uitvoering":"O"},{"uitvoering":"H"}]
},

{
"typs":"Dubbelwandig",
"counting":[{"uitvoering":"OO"},{"uitvoering":"HH"}]

},

{
"typs":"Driewandig",
"counting":[{"uitvoering":"HHH"},{"uitvoering":"OHO"}]

}

]

},{
"materiaal":"PC",
"info":[
{
"typs":"EP10"
},
{
"typs":"EP16"
},
{
"typs":"Enkelwandig",
"counting":[
{
"uitvoering":"A"
}]

},
{
"typs":"Dubbelwandig",
"counting":[{

"uitvoering":"AA"
},{
"uitvoering":"AD"
},{

"uitvoering":"AH"
},{

"uitvoering":"AO"
}]

},
{
"typs":"Driewandig",
"counting":[{

"uitvoering":"AHH"
},{

"uitvoering":"AOO"
}]

},
{
"typs":"Vierwandig",
"counting":[{

"uitvoering":"AHHA"
},{
"uitvoering":"AHOA"
}]
}
]
}

]
}
]